module api-gateway

go 1.19

require (
	github.com/go-chi/chi/v5 v5.0.7
	github.com/go-chi/render v1.0.2
	google.golang.org/grpc v1.48.0
	google.golang.org/protobuf v1.28.1
)

require (
	github.com/ajg/form v1.5.1 // indirect
	github.com/golang/protobuf v1.5.2 // indirect
	golang.org/x/net v0.0.0-20201021035429-f5854403a974 // indirect
	golang.org/x/sys v0.0.0-20210119212857-b64e53b001e4 // indirect
	golang.org/x/text v0.3.3 // indirect
	google.golang.org/genproto v0.0.0-20200526211855-cb27e3aa2013 // indirect
)
